{
    "name": "Category",
    "fields": [
        {
            "fieldName": "name",
            "fieldType": "String",
            "fieldValidateRules": [
                "unique",
                "required"
            ]
        },
        {
            "fieldName": "friendlyUrl",
            "fieldType": "String",
            "fieldValidateRules": [
                "unique",
                "required"
            ]
        },
        {
            "fieldName": "description",
            "fieldType": "String"
        },
        {
            "fieldName": "active",
            "fieldType": "Boolean"
        },
        {
            "fieldName": "meta",
            "fieldType": "String"
        },
        {
            "fieldName": "parentId",
            "fieldType": "Long"
        },
        {
            "fieldName": "type",
            "fieldType": "CategoryType",
            "fieldValues": "ROOT,PARENT,CHILD"
        }
    ],
    "relationships": [
        {
            "relationshipType": "one-to-one",
            "otherEntityName": "image",
            "otherEntityRelationshipName": "category",
            "relationshipName": "image",
            "otherEntityField": "id",
            "ownerSide": true
        },
        {
            "relationshipName": "category",
            "otherEntityName": "category",
            "relationshipType": "many-to-one",
            "otherEntityField": "id"
        },
        {
            "relationshipType": "one-to-many",
            "otherEntityName": "category",
            "otherEntityRelationshipName": "category",
            "relationshipName": "subcategories"
        }
    ],
    "changelogDate": "20190421164423",
    "entityTableName": "category",
    "dto": "no",
    "pagination": "pagination",
    "service": "serviceImpl",
    "jpaMetamodelFiltering": false,
    "fluentMethods": true,
    "clientRootFolder": "",
    "applications": "*",
    "searchEngine": "elasticsearch"
}